Typical Filipino
…
I take a quick summary of the different classes and see the different means of each of the working class.

## # A tibble: 14,459 x 3
##                                                                     head_occup
##                                                                         <fctr>
##  1                                                     Street ambulant vendors
##  2                                           Market and sidewalk stall vendors
##  3                                          Waiters, waitresses and bartenders
##  4 General managers/managing proprietors in personal care, cleaning and relati
##  5                                         Shop salespersons and demonstrators
##  6                                           Market and sidewalk stall vendors
##  7                                           Market and sidewalk stall vendors
##  8                                                         Building caretakers
##  9                                  Production supervisors and general foremen
## 10                                         Shop salespersons and demonstrators
## # ... with 14,449 more rows, and 2 more variables: income <int>,
## #   inc_entrep <int>
…
Both graphs shows that experts are heavily dependent on salaries. While most groups would treat their business as a secondary source of income, office employees and farmers would seem to have more profitable business than the rest of the groups.

## # A tibble: 68,016 x 4
##       id head_class   inc_type    inc
##    <int>      <ord>      <chr>  <int>
##  1     1        gov   inc_work 435962
##  2     1        gov inc_entrep  44370
##  3     2       work   inc_work 198235
##  4     2       work inc_entrep      0
##  5     3       work   inc_work  82785
##  6     3       work inc_entrep      0
##  7     4       farm   inc_work  92009
##  8     4       farm inc_entrep  15580
##  9     5        off   inc_work 113635
## 10     5        off inc_entrep  75687
## # ... with 68,006 more rows
…
Splitting the graphs in a facet, it seems that all classes are resembling the same pattern where the more income they have the higher they would spend. This does not tell us anything new. And I get to thinking, what are they actually spending on?

## # A tibble: 272,064 x 4
##       id head_class  cashflow        cash
##    <int>      <ord>    <fctr>       <dbl>
##  1     1        gov      Food 0.398710508
##  2     1        gov    Luxury 0.042562427
##  3     1        gov      Vice 0.000000000
##  4     1        gov     House 0.269154817
##  5     1        gov   Medical 0.009937078
##  6     1        gov   Farming 0.055678679
##  7     1        gov Education 0.104056179
##  8     1        gov    Living 0.119900313
##  9     2       work      Food 0.322843155
## 10     2       work    Luxury 0.056804834
## # ... with 272,054 more rows
…
Luxury: Restaurant, Hotel, Clothing and Special Occasions Expenses.

Vices: Alcoholic and Tabacco Expenses.

House: Housing, Water, Rent Expenses.

Living: Transportation, Communication, Misc and Services Expenses.

Medical: Medical Expenses.

Education: Education Expenses.

Farming: Farming and Gardening Expenses.

## # A tibble: 41,544 x 63
##    income region expense                     source agri_house exp_bread
##     <int>  <chr>   <int>                      <chr>      <int>     <int>
##  1 480332    CAR  347889              Wage/Salaries          0     42140
##  2 198235    CAR  212834              Wage/Salaries          0     17329
##  3  82785    CAR  123885              Wage/Salaries          1     34182
##  4 107589    CAR  152082              Wage/Salaries          0     34030
##  5 189322    CAR  204919              Wage/Salaries          0     34820
##  6 152883    CAR  133177              Wage/Salaries          0     29065
##  7 198621    CAR  272643              Wage/Salaries          0     40992
##  8 134961    CAR  242183    Other sources of Income          1     37168
##  9 171152    CAR  113826    Other sources of Income          0     23117
## 10 625753    CAR  329274 Enterpreneurial Activities          0     56003
## # ... with 41,534 more rows, and 57 more variables: exp_rice <int>,
## #   exp_meat <int>, exp_seafood <int>, exp_fruit <int>, exp_veg <int>,
## #   exp_resto_hotel <int>, exp_alcoh <int>, exp_taba <int>,
## #   exp_clothe <int>, exp_house_water <int>, exp_rent <int>,
## #   exp_med <int>, exp_trans <int>, exp_comms <int>, exp_edu <int>,
## #   exp_misc <int>, exp_spec <int>, exp_farm <int>, inc_entrep <int>,
## #   head_gender <chr>, head_age <int>, head_stat <chr>, head_educ <chr>,
## #   head_job_bus <chr>, head_occup <fctr>, head_workclass <fctr>,
## #   family_t <chr>, family_n <int>, baby_n <int>, kid_n <int>,
## #   employed_n <int>, house_t <chr>, roof_t <chr>, wall_t <chr>,
## #   house_area <int>, house_age <int>, bed_n <int>, house_tenure <chr>,
## #   toilet <chr>, electric <int>, water_t <chr>, tv_n <int>, DVD_n <int>,
## #   sterio_n <int>, ref_n <int>, wash_n <int>, aircon_n <int>,
## #   car_n <int>, tel_n <int>, cell_n <int>, pc_n <int>, stove_n <int>,
## #   mboat_n <int>, mbike_n <int>, head_class <ord>, inc_work <int>,
## #   id <int>

I add the expenses overall and add it to our main table fies as expense.

## # A tibble: 272,064 x 5
##       id head_class income  cashflow   cash
##    <int>      <ord>  <int>     <chr>  <int>
##  1     1        gov 480332      Food 138707
##  2     1        gov 480332    Luxury  14807
##  3     1        gov 480332      Vice      0
##  4     1        gov 480332     House  93636
##  5     1        gov 480332   Medical   3457
##  6     1        gov 480332   Farming  19370
##  7     1        gov 480332 Education  36200
##  8     1        gov 480332    Living  41712
##  9     2       work 198235      Food  68712
## 10     2       work 198235    Luxury  12090
## # ... with 272,054 more rows
…
