…
```r
fies.workers <- fies %>%
  filter(fies$head_class == "work") %>%
  select(head_occup, income, inc_entrep) %>%
  arrange(desc(income), head_occup)

fies.workers
```

```
## # A tibble: 14,459 x 3
##                                                                     head_occup
##                                                                         <fctr>
##  1                                                     Street ambulant vendors
##  2                                           Market and sidewalk stall vendors
##  3                                          Waiters, waitresses and bartenders
##  4 General managers/managing proprietors in personal care, cleaning and relati
##  5                                         Shop salespersons and demonstrators
##  6                                           Market and sidewalk stall vendors
##  7                                           Market and sidewalk stall vendors
##  8                                                         Building caretakers
##  9                                  Production supervisors and general foremen
## 10                                         Shop salespersons and demonstrators
## # ... with 14,449 more rows, and 2 more variables: income <int>,
## #   inc_entrep <int>
```
…
```r
fies.pro <- fies %>%
  filter(fies$head_class == "pro") %>%
  group_by(head_occup) %>%
  summarise(income_mean = mean(inc_work),
            income_median = median(inc_work),
            n= n()) %>%
  arrange(desc(income_mean))

fies.pro
```

```
## # A tibble: 74 x 4
##                                                                     head_occup
##                                                                         <fctr>
##  1                                          Agronomists and related scientists
##  2                            Aircraft pilots, navigators and flight engineers
##  3                                                                     Lawyers
##  4                              Directors and chief executives of corporations
##  5                                                          Chemical engineers
##  6                                                                    Justices
##  7                                                             Medical doctors
##  8 Production and operations managers in transport, storage and communications
##  9                                      Maritime transport service supervisors
## 10                                                        Mechanical engineers
## # ... with 64 more rows, and 3 more variables: income_mean <dbl>,
## #   income_median <dbl>, n <int>
```
…
```r
fies.office <- fies %>%
  filter(fies$head_class == "off") %>%
  group_by(head_occup) %>%
  summarise(income_mean = mean(inc_work),
            income_median = median(inc_work),
            n= n()) %>%
  arrange(desc(income_mean))

fies.office
```

```
## # A tibble: 95 x 4
##                                                         head_occup
##                                                             <fctr>
##  1                                Power production plant operators
##  2        Incinerator, water treatment and related plant operators
##  3           Glass and ceramics kiln and related machine operators
##  4                                               School principals
##  5                  Technical and commercial sales representatives
##  6                                       Insurance representatives
##  7 College, university and higher education teaching professionals
##  8                                       Pharmaceutical assistants
##  9                                                          Buyers
## 10                        Electronics and communications engineers
## # ... with 85 more rows, and 3 more variables: income_mean <dbl>,
## #   income_median <dbl>, n <int>
```
…
```r
fies.farm <- fies %>%
  filter(fies$head_class == "farm") %>%
  group_by(head_occup) %>%
  summarise(income_mean = mean(inc_work),
            income_median = median(inc_work),
            n= n()) %>%
  arrange(desc(income_mean))

fies.farm
```

```
## # A tibble: 35 x 4
##                                                                     head_occup
##                                                                         <fctr>
##  1                                                        Other animal raisers
##  2 Production and operations managers in agriculture, hunting, forestry and fi
##  3                                                            Tree nut farmers
##  4                                                        Hunters and trappers
##  5                                                       Other poultry farmers
##  6                                    Fish-farm cultivators (excluding prawns)
##  7                                                         Hog raising farmers
##  8                                                             Chicken farmers
##  9                                                    Ornamental plant growers
## 10                                                     Other livestock farmers
## # ... with 25 more rows, and 3 more variables: income_mean <dbl>,
## #   income_median <dbl>, n <int>
```
…
fies$id <- seq_len(nrow(fies))

fies.n <- fies %>%
  filter(!is.na(fies$head_class)) %>%
  select(id, head_class, income, inc_entrep, inc_work, expense) %>%
  gather(inc_type, inc, c(inc_work, inc_entrep)) %>%
  gather(cashflow, cash, c(income, expense)) %>%
  arrange(id)

fies.n
```

```
## # A tibble: 136,032 x 6
##       id head_class   inc_type    inc cashflow   cash
##    <int>      <chr>      <chr>  <int>    <chr>  <int>
##  1     1        gov   inc_work 435962   income 480332
##  2     1        gov inc_entrep  44370   income 480332
##  3     1        gov   inc_work 435962  expense 117848
##  4     1        gov inc_entrep  44370  expense 117848
##  5     2       work   inc_work 198235   income 198235
##  6     2       work inc_entrep      0   income 198235
##  7     2       work   inc_work 198235  expense  67766
##  8     2       work inc_entrep      0  expense  67766
##  9     3       work   inc_work  82785   income  82785
## 10     3       work inc_entrep      0   income  82785
## # ... with 136,022 more rows
```
…
