…
I take a quick summary of the different classes and see the different means of
each of the working class.


```r
fies.workers <- fies %>%
  filter(fies$head_class == "work") %>%
  select(head_occup, income, inc_entrep) %>%
  arrange(desc(income), head_occup)

fies.workers
```

```
## # A tibble: 14,459 x 3
##                                                                     head_occup
##                                                                         <fctr>
##  1                                                     Street ambulant vendors
##  2                                           Market and sidewalk stall vendors
##  3                                          Waiters, waitresses and bartenders
##  4 General managers/managing proprietors in personal care, cleaning and relati
##  5                                         Shop salespersons and demonstrators
##  6                                           Market and sidewalk stall vendors
##  7                                           Market and sidewalk stall vendors
##  8                                                         Building caretakers
##  9                                  Production supervisors and general foremen
## 10                                         Shop salespersons and demonstrators
## # ... with 14,449 more rows, and 2 more variables: income <int>,
## #   inc_entrep <int>
```
…
```r
fies.experts <- fies %>%
  filter(fies$head_class == "exp") %>%
  group_by(head_occup) %>%
  summarise(income_mean = mean(inc_work),
            income_median = median(inc_work),
            n= n()) %>%
  arrange(desc(income_mean))

fies.experts
```

```
## # A tibble: 74 x 4
##                                                                     head_occup
##                                                                         <fctr>
##  1                                          Agronomists and related scientists
##  2                            Aircraft pilots, navigators and flight engineers
##  3                                                                     Lawyers
##  4                              Directors and chief executives of corporations
##  5                                                          Chemical engineers
##  6                                                                    Justices
##  7                                                             Medical doctors
##  8 Production and operations managers in transport, storage and communications
##  9                                      Maritime transport service supervisors
## 10                                                        Mechanical engineers
## # ... with 64 more rows, and 3 more variables: income_mean <dbl>,
## #   income_median <dbl>, n <int>
```

```r
fies.office <- fies %>%
  filter(fies$head_class == "off") %>%
  group_by(head_occup) %>%
  summarise(income_mean = mean(inc_work),
            income_median = median(inc_work),
            n= n()) %>%
  arrange(desc(income_mean))

fies.office
```

```
## # A tibble: 95 x 4
##                                                         head_occup
##                                                             <fctr>
##  1                                Power production plant operators
##  2        Incinerator, water treatment and related plant operators
##  3           Glass and ceramics kiln and related machine operators
##  4                                               School principals
##  5                  Technical and commercial sales representatives
##  6                                       Insurance representatives
##  7 College, university and higher education teaching professionals
##  8                                       Pharmaceutical assistants
##  9                                                          Buyers
## 10                        Electronics and communications engineers
## # ... with 85 more rows, and 3 more variables: income_mean <dbl>,
## #   income_median <dbl>, n <int>
```

```r
fies.farm <- fies %>%
  filter(fies$head_class == "farm") %>%
  group_by(head_occup) %>%
  summarise(income_mean = mean(inc_work),
            income_median = median(inc_work),
            n= n()) %>%
  arrange(desc(income_mean))

fies.farm
```

```
## # A tibble: 35 x 4
##                                                                     head_occup
##                                                                         <fctr>
##  1                                                        Other animal raisers
##  2 Production and operations managers in agriculture, hunting, forestry and fi
##  3                                                            Tree nut farmers
##  4                                                        Hunters and trappers
##  5                                                       Other poultry farmers
##  6                                    Fish-farm cultivators (excluding prawns)
##  7                                                         Hog raising farmers
##  8                                                             Chicken farmers
##  9                                                    Ornamental plant growers
## 10                                                     Other livestock farmers
## # ... with 25 more rows, and 3 more variables: income_mean <dbl>,
## #   income_median <dbl>, n <int>
```
…
fies$id <- seq_len(nrow(fies))

fies.n <- fies %>%
  filter(!is.na(fies$head_class)) %>%
  select(id, head_class, inc_entrep, inc_work) %>%
  gather(inc_type, inc, c(inc_work, inc_entrep)) %>%
  arrange(id)

fies.n
```

```
## # A tibble: 68,016 x 4
##       id head_class   inc_type    inc
##    <int>      <ord>      <chr>  <int>
##  1     1        gov   inc_work 435962
##  2     1        gov inc_entrep  44370
##  3     2       work   inc_work 198235
##  4     2       work inc_entrep      0
##  5     3       work   inc_work  82785
##  6     3       work inc_entrep      0
##  7     4       farm   inc_work  92009
##  8     4       farm inc_entrep  15580
##  9     5        off   inc_work 113635
## 10     5        off inc_entrep  75687
## # ... with 68,006 more rows
```
…
fies.dual
```

```
## # A tibble: 47,794 x 4
##       id head_class inc_type       prop
##    <int>      <ord>    <chr>      <dbl>
##  1     1        gov   salary 0.90762639
##  2     1        gov business 0.09237361
##  3     4       farm   salary 0.85518966
##  4     4       farm business 0.14481034
##  5     5        off   salary 0.60022079
##  6     5        off business 0.39977921
##  7     7       farm   salary 0.63604050
##  8     7       farm business 0.36395950
##  9     8       farm   salary 0.61588903
## 10     8       farm business 0.38411097
## # ... with 47,784 more rows
```
…
fies.w.exp$cashflow <- factor(fies.w.exp$cashflow)
fies.w.exp
```

```
## # A tibble: 272,064 x 4
##       id head_class  cashflow        cash
##    <int>      <ord>    <fctr>       <dbl>
##  1     1        gov      Food 0.398710508
##  2     1        gov    Luxury 0.042562427
##  3     1        gov      Vice 0.000000000
##  4     1        gov     House 0.269154817
##  5     1        gov   Medical 0.009937078
##  6     1        gov   Farming 0.055678679
##  7     1        gov Education 0.104056179
##  8     1        gov    Living 0.119900313
##  9     2       work      Food 0.322843155
## 10     2       work    Luxury 0.056804834
## # ... with 272,054 more rows
```
…
```r
fies %>%
  mutate(expense = exp_bread + exp_rice + exp_meat + exp_seafood + 
           exp_fruit + exp_veg + exp_resto_hotel + exp_spec + exp_clothe +
           exp_alcoh + exp_taba + exp_house_water + exp_rent + exp_med +
           exp_farm + exp_edu + exp_comms + exp_trans + exp_misc)
```

```
## # A tibble: 41,544 x 63
##    income region expense                     source agri_house exp_bread
##     <int>  <chr>   <int>                      <chr>      <int>     <int>
##  1 480332    CAR  347889              Wage/Salaries          0     42140
##  2 198235    CAR  212834              Wage/Salaries          0     17329
##  3  82785    CAR  123885              Wage/Salaries          1     34182
##  4 107589    CAR  152082              Wage/Salaries          0     34030
##  5 189322    CAR  204919              Wage/Salaries          0     34820
##  6 152883    CAR  133177              Wage/Salaries          0     29065
##  7 198621    CAR  272643              Wage/Salaries          0     40992
##  8 134961    CAR  242183    Other sources of Income          1     37168
##  9 171152    CAR  113826    Other sources of Income          0     23117
## 10 625753    CAR  329274 Enterpreneurial Activities          0     56003
## # ... with 41,534 more rows, and 57 more variables: exp_rice <int>,
## #   exp_meat <int>, exp_seafood <int>, exp_fruit <int>, exp_veg <int>,
## #   exp_resto_hotel <int>, exp_alcoh <int>, exp_taba <int>,
## #   exp_clothe <int>, exp_house_water <int>, exp_rent <int>,
## #   exp_med <int>, exp_trans <int>, exp_comms <int>, exp_edu <int>,
## #   exp_misc <int>, exp_spec <int>, exp_farm <int>, inc_entrep <int>,
## #   head_gender <chr>, head_age <int>, head_stat <chr>, head_educ <chr>,
## #   head_job_bus <chr>, head_occup <fctr>, head_workclass <fctr>,
## #   family_t <chr>, family_n <int>, baby_n <int>, kid_n <int>,
…
fies.n.exp
```

```
## # A tibble: 272,064 x 5
##       id head_class income  cashflow   cash
##    <int>      <ord>  <int>     <chr>  <int>
##  1     1        gov 480332      Food 138707
##  2     1        gov 480332    Luxury  14807
##  3     1        gov 480332      Vice      0
##  4     1        gov 480332     House  93636
##  5     1        gov 480332   Medical   3457
##  6     1        gov 480332   Farming  19370
##  7     1        gov 480332 Education  36200
##  8     1        gov 480332    Living  41712
##  9     2       work 198235      Food  68712
## 10     2       work 198235    Luxury  12090
## # ... with 272,054 more rows
```
…
